%YAML 1.1
%TAG !u! tag:unity3d.com,2011:
--- !u!221 &22100000
AnimatorOverrideController:
  m_ObjectHideFlags: 0
  m_PrefabParentObject: {fileID: 0}
  m_PrefabInternal: {fileID: 0}
  m_Name: BossGeography
  m_Controller: {fileID: 9100000, guid: a02c7a1509ca3454b9ecda8ce191ce2f, type: 2}
  m_Clips:
  - m_OriginalClip: {fileID: 7400000, guid: 32b55a2cdcbf6fd49bbfb5deb47989b8, type: 2}
    m_OverrideClip: {fileID: 7400000, guid: 3a6958b80b394e7448ff1f18ed447fbf, type: 2}
  - m_OriginalClip: {fileID: 7400000, guid: 37398c6156c6f4b40a3d6e335b5c9932, type: 2}
    m_OverrideClip: {fileID: 7400000, guid: 3a6958b80b394e7448ff1f18ed447fbf, type: 2}
  - m_OriginalClip: {fileID: 7400000, guid: 8801f4d9c6df688498079bd1829d527e, type: 2}
    m_OverrideClip: {fileID: 7400000, guid: 3a6958b80b394e7448ff1f18ed447fbf, type: 2}
  - m_OriginalClip: {fileID: 7400000, guid: 65d809df8191b8c47b3e67393faebe32, type: 2}
    m_OverrideClip: {fileID: 7400000, guid: 48e8a13e47679724383ac8b9a1d0f6f4, type: 2}
